^C:\USERS\ADMIN\SOURCE\REPOS\SANACSHARP01\LAB20\LAB20.CPP
C:\USERS\ADMIN\SOURCE\REPOS\SANACSHARP01\LAB20\X64\DEBUG\VC143.PDB
C:\USERS\ADMIN\SOURCE\REPOS\SANACSHARP01\LAB20\X64\DEBUG\VC143.IDB
C:\USERS\ADMIN\SOURCE\REPOS\SANACSHARP01\LAB20\X64\DEBUG\LAB20.OBJ
